{
  "schema": "prism.dashboard.miner-payouts.v1",
  "generated_at": "2026-06-26T20:45:00Z",
  "recipient_id": "qbrt1prismminer000000000000000000000000000000000000001",
  "pagination": {
    "page": 1,
    "limit": 15,
    "total_count": 64,
    "total_pages": 5
  },
  "rows": [
    {
      "block_height": 123450,
      "block_hash": "0000000000000000000abc1230000000000000000000000000000000000000aa",
      "created_at": "2026-06-26T19:55:00Z",
      "transaction_id": "bbbbbbbbbbbbbbbbbbbbbbbbbbbbbbbbbbbbbbbbbbbbbbbbbbbbbbbbbbbbbbbb",
      "transaction_kind": "coinbase",
      "onchain_amount_bits": 66943800,
      "carry_forward_balance_bits": 1842000,
      "action": "onchain",
      "maturity_state": "immature",
      "explorer_url": "https://explorer.example/tx/bbbbbbbbbbbbbbbbbbbbbbbbbbbbbbbbbbbbbbbbbbbbbbbbbbbbbbbbbbbbbbbb"
    },
    {
      "block_height": 123448,
      "block_hash": "0000000000000000000abc1230000000000000000000000000000000000000ab",
      "created_at": "2026-06-26T19:35:00Z",
      "transaction_id": "cccccccccccccccccccccccccccccccccccccccccccccccccccccccccccccccc",
      "transaction_kind": "ctv_fanout",
      "onchain_amount_bits": 5231648,
      "carry_forward_balance_bits": 0,
      "action": "onchain",
      "maturity_state": "immature",
      "explorer_url": "https://explorer.example/tx/cccccccccccccccccccccccccccccccccccccccccccccccccccccccccccccccc"
    }
  ]
}
